<?xml version="1.0" encoding="utf-8"?>
<!DOCTYPE eagle SYSTEM "eagle.dtd">
<eagle version="9.1.0">
<drawing>
<settings>
<setting alwaysvectorfont="no"/>
<setting verticaltext="up"/>
</settings>
<grid distance="0.1" unitdist="inch" unit="inch" style="lines" multiple="1" display="no" altdistance="0.01" altunitdist="inch" altunit="inch"/>
<layers>
<layer number="1" name="Top" color="4" fill="1" visible="yes" active="yes"/>
<layer number="16" name="Bottom" color="1" fill="1" visible="yes" active="yes"/>
<layer number="17" name="Pads" color="2" fill="1" visible="yes" active="yes"/>
<layer number="18" name="Vias" color="2" fill="1" visible="yes" active="yes"/>
<layer number="19" name="Unrouted" color="6" fill="1" visible="yes" active="yes"/>
<layer number="20" name="Dimension" color="24" fill="1" visible="yes" active="yes"/>
<layer number="21" name="tPlace" color="7" fill="1" visible="yes" active="yes"/>
<layer number="22" name="bPlace" color="7" fill="1" visible="yes" active="yes"/>
<layer number="23" name="tOrigins" color="15" fill="1" visible="yes" active="yes"/>
<layer number="24" name="bOrigins" color="15" fill="1" visible="yes" active="yes"/>
<layer number="25" name="tNames" color="7" fill="1" visible="yes" active="yes"/>
<layer number="26" name="bNames" color="7" fill="1" visible="yes" active="yes"/>
<layer number="27" name="tValues" color="7" fill="1" visible="yes" active="yes"/>
<layer number="28" name="bValues" color="7" fill="1" visible="yes" active="yes"/>
<layer number="29" name="tStop" color="7" fill="3" visible="no" active="yes"/>
<layer number="30" name="bStop" color="7" fill="6" visible="no" active="yes"/>
<layer number="31" name="tCream" color="7" fill="4" visible="no" active="yes"/>
<layer number="32" name="bCream" color="7" fill="5" visible="no" active="yes"/>
<layer number="33" name="tFinish" color="6" fill="3" visible="no" active="yes"/>
<layer number="34" name="bFinish" color="6" fill="6" visible="no" active="yes"/>
<layer number="35" name="tGlue" color="7" fill="4" visible="no" active="yes"/>
<layer number="36" name="bGlue" color="7" fill="5" visible="no" active="yes"/>
<layer number="37" name="tTest" color="7" fill="1" visible="no" active="yes"/>
<layer number="38" name="bTest" color="7" fill="1" visible="no" active="yes"/>
<layer number="39" name="tKeepout" color="4" fill="11" visible="yes" active="yes"/>
<layer number="40" name="bKeepout" color="1" fill="11" visible="yes" active="yes"/>
<layer number="41" name="tRestrict" color="4" fill="10" visible="yes" active="yes"/>
<layer number="42" name="bRestrict" color="1" fill="10" visible="yes" active="yes"/>
<layer number="43" name="vRestrict" color="2" fill="10" visible="yes" active="yes"/>
<layer number="44" name="Drills" color="7" fill="1" visible="no" active="yes"/>
<layer number="45" name="Holes" color="7" fill="1" visible="no" active="yes"/>
<layer number="46" name="Milling" color="3" fill="1" visible="no" active="yes"/>
<layer number="47" name="Measures" color="7" fill="1" visible="no" active="yes"/>
<layer number="48" name="Document" color="7" fill="1" visible="yes" active="yes"/>
<layer number="49" name="Reference" color="7" fill="1" visible="yes" active="yes"/>
<layer number="51" name="tDocu" color="7" fill="1" visible="yes" active="yes"/>
<layer number="52" name="bDocu" color="7" fill="1" visible="yes" active="yes"/>
<layer number="88" name="SimResults" color="9" fill="1" visible="yes" active="yes"/>
<layer number="89" name="SimProbes" color="9" fill="1" visible="yes" active="yes"/>
<layer number="90" name="Modules" color="5" fill="1" visible="yes" active="yes"/>
<layer number="91" name="Nets" color="2" fill="1" visible="yes" active="yes"/>
<layer number="92" name="Busses" color="1" fill="1" visible="yes" active="yes"/>
<layer number="93" name="Pins" color="2" fill="1" visible="yes" active="yes"/>
<layer number="94" name="Symbols" color="4" fill="1" visible="yes" active="yes"/>
<layer number="95" name="Names" color="7" fill="1" visible="yes" active="yes"/>
<layer number="96" name="Values" color="7" fill="1" visible="yes" active="yes"/>
<layer number="97" name="Info" color="7" fill="1" visible="yes" active="yes"/>
<layer number="98" name="Guide" color="6" fill="1" visible="yes" active="yes"/>
</layers>
<library>
<packages>
<package name="KL27">
<smd name="56" x="0.2" y="5.7" dx="1.27" dy="0.25" layer="1" rot="R90"/>
<smd name="55" x="0.7" y="5.7" dx="1.27" dy="0.25" layer="1" rot="R90"/>
<smd name="54" x="1.2" y="5.7" dx="1.27" dy="0.25" layer="1" rot="R90"/>
<smd name="53" x="1.7" y="5.7" dx="1.27" dy="0.25" layer="1" rot="R90"/>
<smd name="57" x="-0.3" y="5.7" dx="1.27" dy="0.25" layer="1" rot="R90"/>
<smd name="58" x="-0.8" y="5.7" dx="1.27" dy="0.25" layer="1" rot="R90"/>
<smd name="59" x="-1.3" y="5.7" dx="1.27" dy="0.25" layer="1" rot="R90"/>
<smd name="52" x="2.2" y="5.7" dx="1.27" dy="0.25" layer="1" rot="R90"/>
<smd name="51" x="2.7" y="5.7" dx="1.27" dy="0.25" layer="1" rot="R90"/>
<smd name="50" x="3.2" y="5.7" dx="1.27" dy="0.25" layer="1" rot="R90"/>
<smd name="49" x="3.7" y="5.7" dx="1.27" dy="0.25" layer="1" rot="R90"/>
<smd name="60" x="-1.8" y="5.7" dx="1.27" dy="0.25" layer="1" rot="R90"/>
<smd name="61" x="-2.3" y="5.7" dx="1.27" dy="0.25" layer="1" rot="R90"/>
<smd name="62" x="-2.8" y="5.7" dx="1.27" dy="0.25" layer="1" rot="R90"/>
<smd name="63" x="-3.3" y="5.7" dx="1.27" dy="0.25" layer="1" rot="R90"/>
<smd name="64" x="-3.8" y="5.7" dx="1.27" dy="0.25" layer="1" rot="R90"/>
<smd name="25" x="0.2" y="-5.7" dx="1.27" dy="0.25" layer="1" rot="R90"/>
<smd name="26" x="0.7" y="-5.7" dx="1.27" dy="0.25" layer="1" rot="R90"/>
<smd name="27" x="1.2" y="-5.7" dx="1.27" dy="0.25" layer="1" rot="R90"/>
<smd name="28" x="1.7" y="-5.7" dx="1.27" dy="0.25" layer="1" rot="R90"/>
<smd name="24" x="-0.3" y="-5.7" dx="1.27" dy="0.25" layer="1" rot="R90"/>
<smd name="23" x="-0.8" y="-5.7" dx="1.27" dy="0.25" layer="1" rot="R90"/>
<smd name="22" x="-1.3" y="-5.7" dx="1.27" dy="0.25" layer="1" rot="R90"/>
<smd name="29" x="2.2" y="-5.7" dx="1.27" dy="0.25" layer="1" rot="R90"/>
<smd name="30" x="2.7" y="-5.7" dx="1.27" dy="0.25" layer="1" rot="R90"/>
<smd name="31" x="3.2" y="-5.7" dx="1.27" dy="0.25" layer="1" rot="R90"/>
<smd name="32" x="3.7" y="-5.7" dx="1.27" dy="0.25" layer="1" rot="R90"/>
<smd name="21" x="-1.8" y="-5.7" dx="1.27" dy="0.25" layer="1" rot="R90"/>
<smd name="20" x="-2.3" y="-5.7" dx="1.27" dy="0.25" layer="1" rot="R90"/>
<smd name="19" x="-2.8" y="-5.7" dx="1.27" dy="0.25" layer="1" rot="R90"/>
<smd name="18" x="-3.3" y="-5.7" dx="1.27" dy="0.25" layer="1" rot="R90"/>
<smd name="17" x="-3.8" y="-5.7" dx="1.27" dy="0.25" layer="1" rot="R90"/>
<smd name="41" x="5.7" y="0.2" dx="1.27" dy="0.25" layer="1" rot="R180"/>
<smd name="42" x="5.7" y="0.7" dx="1.27" dy="0.25" layer="1" rot="R180"/>
<smd name="43" x="5.7" y="1.2" dx="1.27" dy="0.25" layer="1" rot="R180"/>
<smd name="44" x="5.7" y="1.7" dx="1.27" dy="0.25" layer="1" rot="R180"/>
<smd name="40" x="5.7" y="-0.3" dx="1.27" dy="0.25" layer="1" rot="R180"/>
<smd name="39" x="5.7" y="-0.8" dx="1.27" dy="0.25" layer="1" rot="R180"/>
<smd name="38" x="5.7" y="-1.3" dx="1.27" dy="0.25" layer="1" rot="R180"/>
<smd name="45" x="5.7" y="2.2" dx="1.27" dy="0.25" layer="1" rot="R180"/>
<smd name="46" x="5.7" y="2.7" dx="1.27" dy="0.25" layer="1" rot="R180"/>
<smd name="47" x="5.7" y="3.2" dx="1.27" dy="0.25" layer="1" rot="R180"/>
<smd name="48" x="5.7" y="3.7" dx="1.27" dy="0.25" layer="1" rot="R180"/>
<smd name="37" x="5.7" y="-1.8" dx="1.27" dy="0.25" layer="1" rot="R180"/>
<smd name="36" x="5.7" y="-2.3" dx="1.27" dy="0.25" layer="1" rot="R180"/>
<smd name="35" x="5.7" y="-2.8" dx="1.27" dy="0.25" layer="1" rot="R180"/>
<smd name="34" x="5.7" y="-3.3" dx="1.27" dy="0.25" layer="1" rot="R180"/>
<smd name="33" x="5.7" y="-3.8" dx="1.27" dy="0.25" layer="1" rot="R180"/>
<smd name="8" x="-5.7" y="0.2" dx="1.27" dy="0.25" layer="1" rot="R180"/>
<smd name="7" x="-5.7" y="0.7" dx="1.27" dy="0.25" layer="1" rot="R180"/>
<smd name="6" x="-5.7" y="1.2" dx="1.27" dy="0.25" layer="1" rot="R180"/>
<smd name="5" x="-5.7" y="1.7" dx="1.27" dy="0.25" layer="1" rot="R180"/>
<smd name="9" x="-5.7" y="-0.3" dx="1.27" dy="0.25" layer="1" rot="R180"/>
<smd name="10" x="-5.7" y="-0.8" dx="1.27" dy="0.25" layer="1" rot="R180"/>
<smd name="11" x="-5.7" y="-1.3" dx="1.27" dy="0.25" layer="1" rot="R180"/>
<smd name="4" x="-5.7" y="2.2" dx="1.27" dy="0.25" layer="1" rot="R180"/>
<smd name="3" x="-5.7" y="2.7" dx="1.27" dy="0.25" layer="1" rot="R180"/>
<smd name="2" x="-5.7" y="3.2" dx="1.27" dy="0.25" layer="1" rot="R180"/>
<smd name="1" x="-5.7" y="3.7" dx="1.27" dy="0.25" layer="1" rot="R180"/>
<smd name="12" x="-5.7" y="-1.8" dx="1.27" dy="0.25" layer="1" rot="R180"/>
<smd name="13" x="-5.7" y="-2.3" dx="1.27" dy="0.25" layer="1" rot="R180"/>
<smd name="14" x="-5.7" y="-2.8" dx="1.27" dy="0.25" layer="1" rot="R180"/>
<smd name="15" x="-5.7" y="-3.3" dx="1.27" dy="0.25" layer="1" rot="R180"/>
<smd name="16" x="-5.7" y="-3.8" dx="1.27" dy="0.25" layer="1" rot="R180"/>
<circle x="-4" y="4.2" radius="0.282840625" width="0.127" layer="21"/>
<text x="-1.9" y="-0.1" size="1.27" layer="25">KL27</text>
<wire x1="-5" y1="4.7" x2="-4.7" y2="5" width="0.127" layer="25"/>
<wire x1="-5" y1="4.7" x2="-5" y2="-4.7" width="0.127" layer="25"/>
<wire x1="-5" y1="-4.7" x2="-4.7" y2="-5" width="0.127" layer="25"/>
<wire x1="-4.7" y1="-5" x2="4.7" y2="-5" width="0.127" layer="25"/>
<wire x1="4.7" y1="-5" x2="5" y2="-4.7" width="0.127" layer="25"/>
<wire x1="-4.7" y1="5" x2="4.6" y2="5" width="0.127" layer="25"/>
<wire x1="4.6" y1="5" x2="5" y2="4.7" width="0.127" layer="25"/>
<wire x1="5" y1="4.7" x2="5" y2="-4.7" width="0.127" layer="25"/>
<text x="-3.65" y="0.25" size="1.27" layer="25">&gt;NAME
</text>
<text x="-3.75" y="-4.35" size="1.27" layer="27">&gt;VALUE
</text>
</package>
</packages>
<symbols>
<symbol name="KL27">
<wire x1="-30.48" y1="35.56" x2="30.48" y2="35.56" width="0.254" layer="94"/>
<wire x1="30.48" y1="35.56" x2="30.48" y2="-50.8" width="0.254" layer="94"/>
<wire x1="30.48" y1="-50.8" x2="-30.48" y2="-50.8" width="0.254" layer="94"/>
<wire x1="-30.48" y1="-50.8" x2="-30.48" y2="35.56" width="0.254" layer="94"/>
<pin name="PTE0" x="-35.56" y="33.02" length="middle"/>
<pin name="PTE1" x="-35.56" y="30.48" length="middle"/>
<pin name="VDD" x="-35.56" y="27.94" length="middle" direction="pwr"/>
<pin name="VSS" x="-35.56" y="25.4" length="middle" direction="pwr"/>
<pin name="USB0_DP" x="-35.56" y="22.86" length="middle"/>
<pin name="USB0_DM" x="-35.56" y="20.32" length="middle"/>
<pin name="USB_VDD" x="-35.56" y="17.78" length="middle"/>
<pin name="PTE16" x="-35.56" y="15.24" length="middle"/>
<pin name="PTE20" x="-35.56" y="12.7" length="middle"/>
<pin name="PTE21" x="-35.56" y="10.16" length="middle"/>
<pin name="PTE22" x="-35.56" y="7.62" length="middle"/>
<pin name="PTE23" x="-35.56" y="5.08" length="middle"/>
<pin name="VDDA" x="-35.56" y="2.54" length="middle" direction="pwr"/>
<pin name="VREFH_VREFO" x="-35.56" y="0" length="middle"/>
<pin name="VREFL" x="-35.56" y="-2.54" length="middle"/>
<pin name="VSSA" x="-35.56" y="-5.08" length="middle"/>
<pin name="PTE29" x="-35.56" y="-7.62" length="middle"/>
<pin name="PTE30" x="-35.56" y="-10.16" length="middle"/>
<pin name="PTE31" x="-35.56" y="-12.7" length="middle"/>
<pin name="PTE24" x="-35.56" y="-15.24" length="middle"/>
<pin name="PTE25" x="-35.56" y="-17.78" length="middle"/>
<pin name="PTA0" x="-35.56" y="-20.32" length="middle"/>
<pin name="PTA1" x="-35.56" y="-22.86" length="middle"/>
<pin name="PTA2" x="-35.56" y="-25.4" length="middle"/>
<pin name="PTA3" x="-35.56" y="-27.94" length="middle"/>
<pin name="PTA4" x="-35.56" y="-30.48" length="middle"/>
<pin name="PTA5" x="-35.56" y="-33.02" length="middle"/>
<pin name="PTA12" x="-35.56" y="-35.56" length="middle"/>
<pin name="PTA213" x="-35.56" y="-38.1" length="middle"/>
<pin name="VDD2" x="-35.56" y="-40.64" length="middle" direction="pwr"/>
<pin name="VSS2" x="-35.56" y="-43.18" length="middle" direction="pwr"/>
<pin name="PTA18" x="-35.56" y="-45.72" length="middle"/>
<pin name="PTA19" x="35.56" y="-45.72" length="middle" rot="R180"/>
<pin name="PTA20" x="35.56" y="-43.18" length="middle" rot="R180"/>
<pin name="PTB0/LLWU_P5" x="35.56" y="-40.64" length="middle" rot="R180"/>
<pin name="PTB1" x="35.56" y="-38.1" length="middle" rot="R180"/>
<pin name="PTB2" x="35.56" y="-35.56" length="middle" rot="R180"/>
<pin name="PTB16" x="35.56" y="-30.48" length="middle" rot="R180"/>
<pin name="PTB3" x="35.56" y="-33.02" length="middle" rot="R180"/>
<pin name="PTB17" x="35.56" y="-27.94" length="middle" rot="R180"/>
<pin name="PTB18" x="35.56" y="-25.4" length="middle" rot="R180"/>
<pin name="PTB19" x="35.56" y="-22.86" length="middle" rot="R180"/>
<pin name="PTC0" x="35.56" y="-20.32" length="middle" rot="R180"/>
<pin name="PTC1/LLWU_P6/RTC_CLKIN" x="35.56" y="-17.78" length="middle" rot="R180"/>
<pin name="PTC2" x="35.56" y="-15.24" length="middle" rot="R180"/>
<pin name="PTC3/LLWU_P7" x="35.56" y="-12.7" length="middle" rot="R180"/>
<pin name="VSS3" x="35.56" y="-10.16" length="middle" direction="pwr" rot="R180"/>
<pin name="VDD3" x="35.56" y="-7.62" length="middle" direction="pwr" rot="R180"/>
<pin name="PTC4/LLW_P8" x="35.56" y="-5.08" length="middle" rot="R180"/>
<pin name="PTC5/LLWU_P9" x="35.56" y="-2.54" length="middle" rot="R180"/>
<pin name="PTC6/LLWU_P10" x="35.56" y="0" length="middle" rot="R180"/>
<pin name="PTC7" x="35.56" y="2.54" length="middle" rot="R180"/>
<pin name="PTC8" x="35.56" y="5.08" length="middle" rot="R180"/>
<pin name="PTC9" x="35.56" y="7.62" length="middle" rot="R180"/>
<pin name="PTC10" x="35.56" y="10.16" length="middle" rot="R180"/>
<pin name="PTC11" x="35.56" y="12.7" length="middle" rot="R180"/>
<pin name="PTD0" x="35.56" y="15.24" length="middle" rot="R180"/>
<pin name="PTD1" x="35.56" y="17.78" length="middle" rot="R180"/>
<pin name="PTD2" x="35.56" y="20.32" length="middle" rot="R180"/>
<pin name="PTD3" x="35.56" y="22.86" length="middle" rot="R180"/>
<pin name="PTD4/LLWU_P14" x="35.56" y="25.4" length="middle" rot="R180"/>
<pin name="PTD5" x="35.56" y="27.94" length="middle" rot="R180"/>
<pin name="PTD6/LLWU_P15" x="35.56" y="30.48" length="middle" rot="R180"/>
<pin name="PTD7" x="35.56" y="33.02" length="middle" rot="R180"/>
<text x="-27.94" y="38.1" size="1.778" layer="94">&gt;NAME</text>
<text x="-27.94" y="-53.34" size="1.778" layer="94">&gt;VALUE</text>
</symbol>
</symbols>
<devicesets>
<deviceset name="KL27" prefix="MCU">
<gates>
<gate name="G$1" symbol="KL27" x="0" y="12.7"/>
</gates>
<devices>
<device name="" package="KL27">
<connects>
<connect gate="G$1" pin="PTA0" pad="22"/>
<connect gate="G$1" pin="PTA1" pad="23"/>
<connect gate="G$1" pin="PTA12" pad="28"/>
<connect gate="G$1" pin="PTA18" pad="32"/>
<connect gate="G$1" pin="PTA19" pad="33"/>
<connect gate="G$1" pin="PTA2" pad="24"/>
<connect gate="G$1" pin="PTA20" pad="34"/>
<connect gate="G$1" pin="PTA213" pad="29"/>
<connect gate="G$1" pin="PTA3" pad="25"/>
<connect gate="G$1" pin="PTA4" pad="26"/>
<connect gate="G$1" pin="PTA5" pad="27"/>
<connect gate="G$1" pin="PTB0/LLWU_P5" pad="35"/>
<connect gate="G$1" pin="PTB1" pad="36"/>
<connect gate="G$1" pin="PTB16" pad="39"/>
<connect gate="G$1" pin="PTB17" pad="40"/>
<connect gate="G$1" pin="PTB18" pad="41"/>
<connect gate="G$1" pin="PTB19" pad="42"/>
<connect gate="G$1" pin="PTB2" pad="37"/>
<connect gate="G$1" pin="PTB3" pad="38"/>
<connect gate="G$1" pin="PTC0" pad="43"/>
<connect gate="G$1" pin="PTC1/LLWU_P6/RTC_CLKIN" pad="44"/>
<connect gate="G$1" pin="PTC10" pad="55"/>
<connect gate="G$1" pin="PTC11" pad="56"/>
<connect gate="G$1" pin="PTC2" pad="45"/>
<connect gate="G$1" pin="PTC3/LLWU_P7" pad="46"/>
<connect gate="G$1" pin="PTC4/LLW_P8" pad="49"/>
<connect gate="G$1" pin="PTC5/LLWU_P9" pad="50"/>
<connect gate="G$1" pin="PTC6/LLWU_P10" pad="51"/>
<connect gate="G$1" pin="PTC7" pad="52"/>
<connect gate="G$1" pin="PTC8" pad="53"/>
<connect gate="G$1" pin="PTC9" pad="54"/>
<connect gate="G$1" pin="PTD0" pad="57"/>
<connect gate="G$1" pin="PTD1" pad="58"/>
<connect gate="G$1" pin="PTD2" pad="59"/>
<connect gate="G$1" pin="PTD3" pad="60"/>
<connect gate="G$1" pin="PTD4/LLWU_P14" pad="61"/>
<connect gate="G$1" pin="PTD5" pad="62"/>
<connect gate="G$1" pin="PTD6/LLWU_P15" pad="63"/>
<connect gate="G$1" pin="PTD7" pad="64"/>
<connect gate="G$1" pin="PTE0" pad="1"/>
<connect gate="G$1" pin="PTE1" pad="2"/>
<connect gate="G$1" pin="PTE16" pad="8"/>
<connect gate="G$1" pin="PTE20" pad="9"/>
<connect gate="G$1" pin="PTE21" pad="10"/>
<connect gate="G$1" pin="PTE22" pad="11"/>
<connect gate="G$1" pin="PTE23" pad="12"/>
<connect gate="G$1" pin="PTE24" pad="20"/>
<connect gate="G$1" pin="PTE25" pad="21"/>
<connect gate="G$1" pin="PTE29" pad="17"/>
<connect gate="G$1" pin="PTE30" pad="18"/>
<connect gate="G$1" pin="PTE31" pad="19"/>
<connect gate="G$1" pin="USB0_DM" pad="6"/>
<connect gate="G$1" pin="USB0_DP" pad="5"/>
<connect gate="G$1" pin="USB_VDD" pad="7"/>
<connect gate="G$1" pin="VDD" pad="3"/>
<connect gate="G$1" pin="VDD2" pad="30"/>
<connect gate="G$1" pin="VDD3" pad="48"/>
<connect gate="G$1" pin="VDDA" pad="13"/>
<connect gate="G$1" pin="VREFH_VREFO" pad="14"/>
<connect gate="G$1" pin="VREFL" pad="15"/>
<connect gate="G$1" pin="VSS" pad="4"/>
<connect gate="G$1" pin="VSS2" pad="31"/>
<connect gate="G$1" pin="VSS3" pad="47"/>
<connect gate="G$1" pin="VSSA" pad="16"/>
</connects>
<technologies>
<technology name=""/>
</technologies>
</device>
</devices>
</deviceset>
</devicesets>
</library>
</drawing>
<compatibility>
<note version="6.3" minversion="6.2.2" severity="warning">
Since Version 6.2.2 text objects can contain more than one line,
which will not be processed correctly with this version.
</note>
</compatibility>
</eagle>
