<?xml version="1.0" encoding="UTF-8"?>
<session version="1.0">
<refactoring comment="Delete resource &apos;KBI/source/KBI.c&apos;" deleteContents="false" description="Delete resource &apos;KBI/source/KBI.c&apos;" element1="/KBI/source/KBI.c" flags="7" id="org.eclipse.ltk.core.refactoring.delete.resources" resources="1" stamp="1536927146153"/>
</session>